<?xml version="1.0" encoding="UTF-8"?>
<session version="1.0">
<refactoring accessors="true" comment="Delete element from project &apos;blog-website&apos;&#x0D;&#x0A;- Original project: &apos;blog-website&apos;&#x0D;&#x0A;- Original element: &apos;com.blog.Dto.ImgDto.java&apos;" description="Delete element" element1="/src\/main\/java=/optional=/true=/=/maven.pomderived=/true=/&lt;com.blog.Dto{ImgDto.java" elements="1" flags="589830" id="org.eclipse.jdt.ui.delete" resources="0" stamp="1593004522380" subPackages="false" version="1.0"/>
</session>